{
  "project_info": {
    "project_number": "111918559055",
    "firebase_url": "https://spit-fire-1cbb5.firebaseio.com",
    "project_id": "spit-fire-1cbb5",
    "storage_bucket": "spit-fire-1cbb5.appspot.com"
  },
  "client": [
    {
      "client_info": {
        "mobilesdk_app_id": "1:111918559055:android:b89d3b19137b70a4",
        "android_client_info": {
          "package_name": "com.starhub.giga"
        }
      },
      "oauth_client": [],
      "api_key": [
        {
          "current_key": "AIzaSyA7_bQn3DQQyOJlt9t5iSd7w_8h1NKv6AU"
        }
      ],
      "services": {
        "appinvite_service": {
          "other_platform_oauth_client": [
            {
              "client_id": "111918559055-esjaag6hqovvni2q284ap1lj8ge0mu7u.apps.googleusercontent.com",
              "client_type": 3
            },
            {
              "client_id": "111918559055-n4jsf8g78vadhubkmf9j643oupq9pffq.apps.googleusercontent.com",
              "client_type": 2,
              "ios_info": {
                "bundle_id": "com.starhub.giga"
              }
            }
          ]
        }
      }
    }
  ],
  "configuration_version": "1"
}